id	name	animation_id	mesh_id	color_id	projectile_id	particlegroup_id	soundgroup_id	itemdrop_id	drop_count	health	health_level	ai_type	ai_attacks	view_range	xp	xp_level	freepathing	move_speed	move_speed_level	radius	scale	accuracy	attack_range	damage	damage_level	damage_spread	attack_period	weapon_type	attack_movespeed	poison	projectile_range	projectile_speed	projectile_chance	mass	force
crate_ammo0	Ammo Crate I	crate_ammo0	meshes/box.mesh			crate	crate	crate_ammo0	3	25	25	0	0	0	10	5	0	0	0	0.48	1	0	0	0	0	0	0	0	0	0	0	0	0	0	0
crate_ammo1	Ammo Crate II	crate_ammo1	meshes/box.mesh			crate	crate	crate_ammo1	3	25	25	0	0	0	10	5	0	0	0	0.48	1	0	0	0	0	0	0	0	0	0	0	0	0	0	0
crate_ammo2	Ammo Crate III	crate_ammo2	meshes/box.mesh			crate	crate	crate_ammo2	3	25	25	0	0	0	10	5	0	0	0	0.48	1	0	0	0	0	0	0	0	0	0	0	0	0	0	0
crate_health0	Health Crate	crate_health0	meshes/box.mesh			crate	crate	crate_health0	3	25	25	0	0	0	10	5	0	0	0	0.48	1	0	0	0	0	0	0	0	0	0	0	0	0	0	0
crate_gun0	Gun Crate I	crate_gun0	meshes/box.mesh			crate	crate	crate_gun0	1	25	25	0	0	0	50	25	0	0	0	0.48	1	0	0	0	0	0	0	0	0	0	0	0	0	0	0
crate_gun1	Gun Crate II	crate_gun1	meshes/box.mesh			crate	crate	crate_gun1	1	25	25	0	0	0	50	25	0	0	0	0.48	1	0	0	0	0	0	0	0	0	0	0	0	0	0	0
crate_gun2	Gun Crate III	crate_gun2	meshes/box.mesh			crate	crate	crate_gun2	1	25	25	0	0	0	50	25	0	0	0	0.48	1	0	0	0	0	0	0	0	0	0	0	0	0	0	0
crate_gun3	Gun Crate IV	crate_gun3	meshes/box.mesh			crate	crate	crate_gun3	1	25	25	0	0	0	50	25	0	0	0	0.48	1	0	0	0	0	0	0	0	0	0	0	0	0	0	0
crate_melee0	Melee Crate I	crate_melee0	meshes/box.mesh			crate	crate	crate_melee0	1	25	25	0	0	0	50	25	0	0	0	0.48	1	0	0	0	0	0	0	0	0	0	0	0	0	0	0
crate_armor0	Armor Crate I	crate_armor0	meshes/box.mesh			crate	crate	crate_armor0	1	25	25	0	0	0	50	25	0	0	0	0.48	1	0	0	0	0	0	0	0	0	0	0	0	0	0	0
crate_mod0	Weapon Mod Crate	crate_mod0	meshes/box.mesh			crate	crate	crate_mod0	2	25	25	0	0	0	50	25	0	0	0	0.48	1	0	0	0	0	0	0	0	0	0	0	0	0	0	0
crate_mod1	Armor Mod Crate	crate_mod1	meshes/box.mesh			crate	crate	crate_mod1	2	25	25	0	0	0	50	25	0	0	0	0.48	1	0	0	0	0	0	0	0	0	0	0	0	0	0	0
crate_mod2	Special Mod Crate I	crate_mod2	meshes/box.mesh			crate	crate	crate_mod2	2	25	25	0	0	0	50	25	0	0	0	0.48	1	0	0	0	0	0	0	0	0	0	0	0	0	0	0
crate_mod3	Special Mod Crate II	crate_mod3	meshes/box.mesh			crate	crate	crate_mod3	2	25	25	0	0	0	50	25	0	0	0	0.48	1	0	0	0	0	0	0	0	0	0	0	0	0	0	0
crate_usable0	Upgrade Mod Crate I	crate_usable0	meshes/box.mesh			crate	crate	crate_usable0	2	25	25	0	0	0	50	25	0	0	0	0.48	1	0	0	0	0	0	0	0	0	0	0	0	0	0	0
crate_usable1	Upgrade Mod Crate II	crate_usable1	meshes/box.mesh			crate	crate	crate_usable1	1	25	25	0	0	0	50	25	0	0	0	0.48	1	0	0	0	0	0	0	0	0	0	0	0	0	0	0
monster_zombie	Zombie	zombie				monster	zombie	monster_small	1	50	25	3	0	15	10	5	0	0.3	0.05	0.3	0.8	0	0.7	10	5	0.1	1.7	1	0.1	0	0	0	0	1	-0.05
monster_dog	Dog	dog				monster	dog	monster_small	1	20	10	4	3	25	8	4	0	7	0.1	0.2	0.7	0	0.9	12	6	0.1	0.8	1	0.5	0	0	0	0	0.35	-0.04
monster_bat	Bat	bat		dark		monster	bat	monster_small	1	16	8	4	1	20	6	3	0	4	0.1	0.2	0.5	0	0.7	6	3	0.1	1.1	1	0.25	0.5	0	0	0	0.1	0
monster_spider	Spider	spider				spider	spider	monster_small	1	14	7	3	0	18	6	3	0	5	0.07	0.2	0.5	0	0.7	5	3	0.1	1	1	0.25	1	0	0	0	0.1	0
monster_skeleton	Skeleton	skeleton			bone	skeleton	skeleton	monster_medium	1	60	30	3	0	15	12	6	0	1.3	0.05	0.3	1.25	10	0.9	10	5	0.1	1.2	1	0.1	0	10	7	10	0.85	0.02
monster_beast	Beast	beast			rock	monster	beast	monster_large	1	150	75	3	0	18	40	20	0	1	0.03	0.4	2	10	1.2	30	15	0.1	1.75	1	0.1	0	15	5	10	3	0.1
monster_fighter	Mercenary	fighter				monster	fighter	monster_medium	1	75	35	3	0	20	16	8	0	2.35	0.07	0.3	1	0	0.9	15	8	0.1	0.7	1	0.25	0	0	0	0	1.5	0.06
monster_gunner	Mercenary	gunner				monster	gunner	monster_special	1	50	25	3	0	25	16	8	0	2	0.08	0.3	1	15	15	12	6	0.1	1.5	2	0	0	0	0	0	1.35	0
monster_wisp	Wisp	wisp		ghost			wisp	monster_large	1	80	40	5	0	40	24	12	1	0.75	0.01	0.4	1.5	0	1.75	24	12	0.1	1	1	0.6	0	0	0	0	3	-0.05
monster_demon	Demon	demon			fireball	demon	demon	monster_special	1	90	45	3	0	25	30	15	0	1.5	0.05	0.3	2.5	5	0	20	10	0.1	2	1	0	0	15	15	100	1.25	0.02
monster_alien	Alien	alien		light_cyan	plasma	monster	alien	monster_special	1	80	40	3	0	25	30	15	0	2	0.05	0.3	1	10	0	20	10	0.1	1.4	2	0	0	15	20	100	1.15	0.02
monster_bot	Robot	bot		gray	wrench		bot	monster_medium	1	70	35	3	0	20	20	10	0	1	0.07	0.3	1	10	0.9	18	10	0.1	0.7	1	0.25	0	10	7	10	2.5	0.04
boss_01	Zudg	zombie		dark		monster	zombie	boss	1	500	2000	2	0	50	500	5000	0	1	0.1	0.4	1.5	0	1.2	35	35	0.1	1.4	1	0.5	0	0	0	0	2	-0.1
boss_02	Darg	dog		dark		monster	dog	boss	1	250	600	4	3	50	1000	3500	0	9	0.05	0.3	1.2	0	1.2	50	20	0.1	0.9	1	0.4	0	0	0	0	0.5	-0.05
boss_03	Froz	beast		blue		monster	beast	boss	1	2500	3000	2	0	50	5000	6000	0	2.3	0.05	0.7	5	0	3	150	60	0.1	1.25	1	0.3	0	0	0	0	5	0.2
boss_04	Arach	spider		purple		monster	spider	boss	1	5000	2000	2	0	50	10000	5000	0	3.5	0.05	0.5	2	0	1.2	175	60	0.1	1	1	0.25	1.25	0	0	0	1.5	0
boss_05	Vir	bat		green_dark		monster	bat	boss	1	7500	2200	2	0	50	15000	5500	0	4	0.05	0.4	1.5	0	1	200	75	0.1	1.2	1	0.3	0.5	0	0	0	1.25	0
boss_06	Tor	skeleton		brick	bone_large	skeleton	skeleton	boss	1	10000	2500	2	0	50	25000	7000	0	2	0.05	0.4	2	5	0	225	80	0.1	1.5	1	0.4	1	20	7	100	2.5	0.1
boss_07a	Charl	fighter		brown		monster	fighter	boss	1	15000	3000	2	0	50	30000	7500	0	3.75	0.05	0.5	2.5	0	1.5	200	75	0.1	0.5	1	0.4	0	0	0	0	3.5	0.2
boss_07b	Luth	gunner		gold		monster	gunner	boss	1	10000	2500	2	0	50	25000	7500	0	3.25	0.05	0.5	2.25	15	25	150	75	0.1	2	2	0	0	0	0	0	3.5	0.1
boss_08	Mas	wisp		black			wisp	boss	1	20000	4000	5	0	50	40000	9000	1	1.5	0.05	1.5	7	0	5	250	100	0.1	2	1	0.8	0	0	0	0	5	-0.1
boss_09	Daethor	demon		red	fireball_large	monster	demon	boss	1	25000	3000	2	0	50	50000	10000	0	2.5	0.05	0.3	5	3	0	300	115	0.1	2.5	1	0	0	25	15	100	2.5	0.1
boss_10a	Xau	alien			plasma_large	monster	alien	boss	1	30000	6000	2	0	50	60000	15000	0	3	0.05	0.5	2	3	0	350	130	0.1	2	2	0	0	25	20	100	3.5	0.05
boss_10b	Cy	bot					bot	boss	1	30000	6000	2	0	50	60000	15000	0	2.5	0.05	0.5	2	0	2	500	190	0.1	1.5	1	0.25	0	0	0	0	5	0.1
