{
	"app-id": "io.gitlab.jazztickets.emptyclip",
	"runtime": "org.freedesktop.Platform",
	"runtime-version": "24.08",
	"sdk": "org.freedesktop.Sdk",
	"command": "emptyclip",
	"rename-desktop-file": "emptyclip.desktop",
	"rename-icon": "emptyclip",
	"rename-appdata-file": "emptyclip.xml",
	"modules": [
		{
			"name": "emptyclip",
			"buildsystem": "cmake-ninja",
			"builddir": true,
			"sources": [
				{
					"type": "archive",
					"path": "out/src.tar.gz"
				}
			]
		}
	],
	"finish-args": [
		"--device=dri",
		"--share=ipc",
		"--socket=fallback-x11",
		"--socket=pulseaudio",
		"--socket=wayland"
	]
}
